…
``` r
stroke_data
```

    ## # A tibble: 59,076 x 2
    ##    state  stroke_value
    ##    <chr>         <dbl>
    ##  1 Alaska          3  
    ##  2 Alaska          6.1
    ##  3 Alaska         63.8
    ##  4 Alaska        106. 
    ##  5 Alaska         NA  
    ##  6 Alaska         63.4
    ##  7 Alaska         81.4
    ##  8 Alaska         65.9
    ##  9 Alaska         52.3
    ## 10 Alaska         52.3
    ## # ... with 59,066 more rows

``` r
left_join(heart_disease,stroke_data)
```

    ## Joining, by = "state"

    ## # A tibble: 102,985,344 x 10
    ##     year state location_desc data_value data_value_unit data_value_type
    ##    <int> <chr> <chr>              <dbl> <chr>           <chr>          
    ##  1  2015 Alas… Aleutians Ea…       110. per 100,000 po… Age-adjusted, …
    ##  2  2015 Alas… Aleutians Ea…       110. per 100,000 po… Age-adjusted, …
    ##  3  2015 Alas… Aleutians Ea…       110. per 100,000 po… Age-adjusted, …
    ##  4  2015 Alas… Aleutians Ea…       110. per 100,000 po… Age-adjusted, …
    ##  5  2015 Alas… Aleutians Ea…       110. per 100,000 po… Age-adjusted, …
    ##  6  2015 Alas… Aleutians Ea…       110. per 100,000 po… Age-adjusted, …
    ##  7  2015 Alas… Aleutians Ea…       110. per 100,000 po… Age-adjusted, …
    ##  8  2015 Alas… Aleutians Ea…       110. per 100,000 po… Age-adjusted, …
    ##  9  2015 Alas… Aleutians Ea…       110. per 100,000 po… Age-adjusted, …
    ## 10  2015 Alas… Aleutians Ea…       110. per 100,000 po… Age-adjusted, …
    ## # ... with 102,985,334 more rows, and 4 more variables:
    ## #   stratification_category1 <chr>, stratification_category2 <chr>,
    ## #   location_1 <chr>, stroke_value <dbl>
…
